…
## Questions  
**2. Do some exploratory analysis of the `amniota` data set. Use the function(s) of your choice. Try to get an idea of how NA's are represented in the data.**  

``` r
miss_var_summary(amniota)
```

```
## # A tibble: 36 × 3
##    variable                  n_miss pct_miss
##    <chr>                      <int>    <num>
##  1 class                          0        0
##  2 order                          0        0
##  3 family                         0        0
##  4 genus                          0        0
##  5 species                        0        0
##  6 subspecies                     0        0
##  7 common_name                    0        0
##  8 female_maturity_d              0        0
##  9 litter_or_clutch_size_n        0        0
## 10 litters_or_clutches_per_y      0        0
## # ℹ 26 more rows
```
…
**3. Do some exploratory analysis of the `amphibio` data set. Use the function(s) of your choice. Try to get an idea of how NA's are represented in the data.**  

``` r
miss_var_summary(amphibia)
```

```
## # A tibble: 38 × 3
##    variable n_miss pct_miss
##    <chr>     <int>    <num>
##  1 Fruits     6774    100. 
##  2 Flowers    6772     99.9
##  3 Seeds      6772     99.9
##  4 Leaves     6752     99.6
##  5 Dry_cold   6735     99.4
##  6 Vert       6657     98.2
##  7 OBS        6651     98.2
##  8 Wet_cold   6625     97.8
##  9 Crepu      6608     97.5
## 10 Dry_warm   6572     97.0
## # ℹ 28 more rows
```
…
**4. How many total NA's are in each data set? Do these values make sense? Are NA's represented by values?**   

``` r
miss_var_summary(amniota)
```

```
## # A tibble: 36 × 3
##    variable                  n_miss pct_miss
##    <chr>                      <int>    <num>
##  1 class                          0        0
##  2 order                          0        0
##  3 family                         0        0
##  4 genus                          0        0
##  5 species                        0        0
##  6 subspecies                     0        0
##  7 common_name                    0        0
##  8 female_maturity_d              0        0
##  9 litter_or_clutch_size_n        0        0
## 10 litters_or_clutches_per_y      0        0
## # ℹ 26 more rows
```


``` r
miss_var_summary(amphibia)
```

```
## # A tibble: 38 × 3
##    variable n_miss pct_miss
##    <chr>     <int>    <num>
##  1 Fruits     6774    100. 
##  2 Flowers    6772     99.9
##  3 Seeds      6772     99.9
##  4 Leaves     6752     99.6
##  5 Dry_cold   6735     99.4
##  6 Vert       6657     98.2
##  7 OBS        6651     98.2
##  8 Wet_cold   6625     97.8
##  9 Crepu      6608     97.5
## 10 Dry_warm   6572     97.0
## # ℹ 28 more rows
```
…
``` r
amphibia <- amphibia %>% 
  replace_with_na_all(condition = ~.x %in% c(common_na_numbers, common_na_strings))
```

**6. Use the package `naniar` to produce a summary, including percentages, of missing data in each column for the `amniota` data.**  

``` r
miss_var_summary(amniota)
```

```
## # A tibble: 36 × 3
##    variable                       n_miss pct_miss
##    <chr>                           <int>    <num>
##  1 subspecies                      21322    100  
##  2 female_body_mass_at_maturity_g  21318    100. 
##  3 female_svl_at_maturity_cm       21120     99.1
##  4 fledging_mass_g                 21111     99.0
##  5 male_svl_cm                     21040     98.7
##  6 no_sex_maturity_d               20860     97.8
##  7 egg_width_mm                    20730     97.2
##  8 egg_length_mm                   20706     97.1
##  9 weaning_weight_g                20258     95.0
## 10 female_svl_cm                   20242     94.9
## # ℹ 26 more rows
```

**7. Use the package `naniar` to produce a summary, including percentages, of missing data in each column for the `amphibio` data.**

``` r
miss_var_summary(amphibia)
```

```
## # A tibble: 38 × 3
##    variable n_miss pct_miss
##    <chr>     <int>    <num>
##  1 Fruits     6774    100. 
##  2 Flowers    6772     99.9
##  3 Seeds      6772     99.9
##  4 Leaves     6752     99.6
##  5 Dry_cold   6735     99.4
##  6 Vert       6657     98.2
##  7 OBS        6651     98.2
##  8 Wet_cold   6625     97.8
##  9 Crepu      6608     97.5
## 10 Dry_warm   6572     97.0
## # ℹ 28 more rows
```
…
```
## Rows: 21322 Columns: 36
## ── Column specification ────────────────────────────────────────────────────────
## Delimiter: ","
## chr  (6): class, order, family, genus, species, common_name
## dbl (28): female_maturity_d, litter_or_clutch_size_n, litters_or_clutches_pe...
## lgl  (2): subspecies, female_body_mass_at_maturity_g
## 
## ℹ Use `spec()` to retrieve the full column specification for this data.
## ℹ Specify the column types or set `show_col_types = FALSE` to quiet this message.
```

```
## # A tibble: 36 × 3
##    variable                       n_miss pct_miss
##    <chr>                           <int>    <num>
##  1 subspecies                      21322    100  
##  2 female_body_mass_at_maturity_g  21322    100  
##  3 female_svl_at_maturity_cm       21120     99.1
##  4 fledging_mass_g                 21111     99.0
##  5 male_svl_cm                     21040     98.7
##  6 no_sex_maturity_d               20860     97.8
##  7 egg_width_mm                    20727     97.2
##  8 egg_length_mm                   20702     97.1
##  9 weaning_weight_g                20258     95.0
## 10 female_svl_cm                   20242     94.9
## # ℹ 26 more rows
```
…
