…
**3. Use `mutate()` Change the variables `HuntCat`, `LandUse`, and `TransectID` to factors.**

``` r
gabon %>% 
  select(hunt_cat, land_use, transect_id) %>% 
  mutate(
      hunt_cat = factor(hunt_cat),
      land_use = factor(land_use),
      transect_id = factor(transect_id)
         )
```

```
## # A tibble: 24 × 3
##    hunt_cat land_use transect_id
##    <fct>    <fct>    <fct>      
##  1 Moderate Park     1          
##  2 None     Park     2          
##  3 None     Park     2          
##  4 None     Logging  3          
##  5 None     Park     4          
##  6 None     Park     5          
##  7 None     Park     6          
##  8 None     Logging  7          
##  9 High     Neither  8          
## 10 High     Logging  9          
## # ℹ 14 more rows
```
…
