…
2. Notice that we have some bad superheros! Who are they? List their names below.  

``` r
superhero_info %>% 
  select(name, alignment) %>% 
  filter(alignment == "bad")
```

```
## # A tibble: 207 × 2
##    name          alignment
##    <chr>         <chr>    
##  1 Abomination   bad      
##  2 Abraxas       bad      
##  3 Absorbing Man bad      
##  4 Air-Walker    bad      
##  5 Ajax          bad      
##  6 Alex Mercer   bad      
##  7 Alien         bad      
##  8 Amazo         bad      
##  9 Ammo          bad      
## 10 Angela        bad      
## # ℹ 197 more rows
```
…
6. Who has the height advantage- bad guys or good guys? Convert their height to meters and sort from tallest to shortest.  

``` r
good %>%
  select(name, height) %>% 
  mutate(height_m = height/100) %>% 
  arrange(-height_m)
```

```
## # A tibble: 496 × 3
##    name          height height_m
##    <chr>          <dbl>    <dbl>
##  1 Fin Fang Foom   975      9.75
##  2 Groot           701      7.01
##  3 Wolfsbane       366      3.66
##  4 Sasquatch       305      3.05
##  5 Ymir            305.     3.05
##  6 Rey             297      2.97
##  7 Hellboy         259      2.59
##  8 Hulk            244      2.44
##  9 Kilowog         234      2.34
## 10 Cloak           226      2.26
## # ℹ 486 more rows
```


``` r
bad %>%
  select(name, height) %>% 
  mutate(height_m = height/100) %>% 
  arrange(-height_m)
```

```
## # A tibble: 207 × 3
##    name           height height_m
##    <chr>           <dbl>    <dbl>
##  1 MODOK             366     3.66
##  2 Onslaught         305     3.05
##  3 Sauron            279     2.79
##  4 Solomon Grundy    279     2.79
##  5 Darkseid          267     2.67
##  6 Amazo             257     2.57
##  7 Alien             244     2.44
##  8 Doomsday          244     2.44
##  9 Killer Croc       244     2.44
## 10 Venom III         229     2.29
## # ℹ 197 more rows
```
…
8. Who is the most powerful superhero? Have a look at the code chunk below. Use the internet to annotate each line of code so you know how it works. It's OK to use AI to help you with this task.

``` r
superhero_powers %>%
  mutate(across(-1, ~ ifelse(. == TRUE, 1, 0))) %>% #converts trues to 1 and falses to 0 for every column except for column 1, which holds the hero names
  mutate(total_powers = rowSums(across(-1))) %>% #sums the rows to find which heroes have the most powers in total
  select(hero_names, total_powers) %>% #selects the variables hero_names and total_powers to be displayed
  arrange(-total_powers) #sorts the total powers in descending order
```

```
## # A tibble: 667 × 2
##    hero_names        total_powers
##    <chr>                    <dbl>
##  1 Spectre                     49
##  2 Amazo                       44
##  3 Living Tribunal             35
##  4 Martian Manhunter           35
##  5 Man of Miracles             34
##  6 Captain Marvel              33
##  7 T-X                         33
##  8 Galactus                    32
##  9 T-1000                      32
## 10 Mister Mxyzptlk             31
## # ℹ 657 more rows
```
…
